nip,username,jenjang,gelar_akademik,bidang,asalSekolah,asalNegara,tahunLulus,fileIjazah,keterangan
"""195412191980031003""",erriyanto@undip.ac.id,S1,Drs.,,Universitas Diponegoro,Indonesia,1986,img/ijazah/djalal-s1.jpg,
"""195412191980031003""",erriyanto@undip.ac.id,S2,M.Kom.,,Universitas Indonesia,Indonesia,1994,img/ijazah/djalal-s2.jpg,
"""195504071983031003""",suhartono.ilkom@undip.ac.id,S1,Drs.,,Universitas Diponegoro,Indonesia,1982,img/ijazah/ton-s1.jpg,
"""195504071983031003""",suhartono.ilkom@undip.ac.id,S2,M.Kom.,,Universitas Indonesia,Indonesia,1997,img/ijazah/ton-s2.jpg,
"""196511071992031003""",ekoas299@ilkom.undip.ac.id,S1,Drs.,,Universitas Diponegoro,Indonesia,1991,img/ijazah/eko-s1.jpg,
"""196511071992031003""",ekoas299@ilkom.undip.ac.id,S2,M.Kom.,,Universitas Indonesia,Indonesia,2001,img/ijazah/eko-s2.jpg,
"""197007051997021001""",priyoss@undip.ac.id,S1,S.Si.,,Universitas Diponegoro,Indonesia,1996,img/ijazah/priyo-s1.jpg,
"""197007051997021001""",priyoss@undip.ac.id,S2,M.Kom.,,,Indonesia,2004,img/ijazah/priyo-s2.jpg,
"""197108111997021004""",aris.sugiharto@gmail.com,S1,S.Si.,,Universitas Diponegoro,Indonesia,1995,img/ijazah/aris-s1.jpg,
"""197108111997021004""",aris.sugiharto@gmail.com,S2,M.Kom.,,Universitas Gadjah Mada,Indonesia,2004,img/ijazah/aris-s2.jpg,
"""197308291998022001""",betta@undip.ac.id,S1,S.Si.,,Universitas Diponegoro,Indonesia,1997,img/ijazah/beta-s1.jpg,
"""197308291998022001""",betta@undip.ac.id,S2,M.Kom.,,Universitas Gadjah Mada,Indonesia,2003,img/ijazah/beta-s2.jpg,
"""197404011999031002""",arispw@gmail.com,S1,S.Si.,,Universitas Diponegoro,Indonesia,1997,img/ijazah/arispuji-s1.jpg,
"""197404011999031002""",arispw@gmail.com,S2,M.T.,,Institut Teknologi Bandung,Indonesia,2002,img/ijazah/arispuji-s2.jpg,
"""197404011999031002""",arispw@gmail.com,S3,Dr.,,Universitas Gadjah Mada,Indonesia,2015,img/ijazah/arispuji-s3.jpg,
"""197601102009122002""",dinar.mutiara@gmail.com,S1,S.T.,,Universitas Diponegoro,Indonesia,2002,img/ijazah/dinar-s1.jpg,
"""197601102009122002""",dinar.mutiara@gmail.com,S2,M.Tech.Com.Info.,,The Flinders University Of South Australia,Australia,2008,img/ijazah/dinar-s2.jpg,
"""197601102009122002""",dinar.mutiara@gmail.com,S3,,,,,,img/ijazah/dinar-s3.jpg,
"""197805022005012002""",sukma_ne@undip.ac.id,S1,S.Si.,,Universitas Diponegoro,Indonesia,2001,img/ijazah/sukma-s1.jpg,
"""197805022005012002""",sukma_ne@undip.ac.id,S2,M.Kom.,,,Indonesia,2009,img/ijazah/sukma-s2.jpg,
"""197805162003121001""",helmie.arif@undip.ac.id,S1,S.Si.,,Universitas Diponegoro,Indonesia,2001,img/ijazah/helmie-s1.jpg,
"""197805162003121001""",helmie.arif@undip.ac.id,S2,M.Cs.,,Universitas Gadjah Mada,Indonesia,2008,img/ijazah/helmie-s2.jpg,
"""197902122008121002""",indrawaspada@undip.ac.id,S1,S.T.,,Universitas Diponegoro,Indonesia,2002,img/ijazah/indra-s1.jpg,
"""197902122008121002""",indrawaspada@undip.ac.id,S2,M.T.I.,,Universitas Indonesia,Indonesia,2008,img/ijazah/indra-s2.jpg,
"""197905242009121003""",tik@undip.ac.id,S1,S.T.,,Universitas Diponegoro,Indonesia,2006,img/ijazah/tikno-s1.jpg,
"""197905242009121003""",tik@undip.ac.id,S2,M.Cs.,,Universitas Gadjah Mada,Indonesia,2009,img/ijazah/tikno-s2.jpg,
"""197907202003121002""",nurdinbahtiar@gmail.com,S1,S.Si.,,Universitas Diponegoro,Indonesia,2002,img/ijazah/nurdin-s1.jpg,
"""197907202003121002""",nurdinbahtiar@gmail.com,S2,M.T.,,Institut Teknologi Bandung,Indonesia,2009,img/ijazah/nurdin-s2.jpg,
"""198009142006041002""",edys@undip.ac.id,S1,S.T.,,Universitas Diponegoro,Indonesia,2004,img/ijazah/edy-s1.jpg,
"""198009142006041002""",edys@undip.ac.id,S2,M.Kom.,,Institut Teknologi Bandung,Indonesia,2018,img/ijazah/edy-s2.jpg,
"""198010212005011003""",ragil.saputra@undip.ac.id,S1,S.Si.,,Universitas Diponegoro,Indonesia,2003,img/ijazah/ragil-s1.jpg,
"""198010212005011003""",ragil.saputra@undip.ac.id,S2,M.Cs.,,Universitas Gadjah Mada,Indonesia,2011,img/ijazah/ragil-s2.jpg,
"""198104202005012001""",retno_ilkom@undip.ac.id,S1,S.Si.,,Universitas Diponegoro,Indonesia,2003,img/ijazah/retno-s1.jpg,
"""198104202005012001""",retno_ilkom@undip.ac.id,S2,M.Kom.,,Universitas Indonesia,Indonesia,2010,img/ijazah/retno-s2.jpg,
"""198104202005012001""",retno_ilkom@undip.ac.id,S3,Dr.,,Universitas Indonesia,Indonesia,2015,img/ijazah/retno-s3.jpg,
"""198104212008121002""",maspanji@undip.ac.id,S1,S.T.,,Universitas Gadjah Mada,Indonesia,2005,img/ijazah/panji-s1.jpg,
"""198104212008121002""",maspanji@undip.ac.id,S2,M.T.,,Universitas Gadjah Mada,Indonesia,2007,img/ijazah/panji-s2.jpg,
"""198203092006041002""",bowo.adi@undip.ac.id,S1,S.Si.,,Universitas Diponegoro,Indonesia,2005,img/ijazah/adiwibowo-s1.jpg,
"""198203092006041002""",bowo.adi@undip.ac.id,S2,M.Kom.,,Universitas Indonesia,Indonesia,2011,img/ijazah/adiwibowo-s2.jpg,
"""198203092006041002""",bowo.adi@undip.ac.id,S3,Dr.Eng.,,Nagoya University,Jepang,2016,img/ijazah/adiwibowo-s3.jpg,
"""198302032006041002""",satriyo@live.undip.ac.id,S1,S.Si.,,Universitas Diponegoro,Indonesia,2005,img/ijazah/satriyo-s1.jpg,
"""198302032006041002""",satriyo@live.undip.ac.id,S2,M.T.,,Institut Teknologi Bandung,Indonesia,2012,img/ijazah/satriyo-s2.jpg,
"""198511252018032001""",rismi@if.undip.ac.id,S1,B.Eng.,,Nanyang Technological University,Singapura,2009,img/ijazah/rismi-s1.jpg,
"""198511252018032001""",rismi@if.undip.ac.id,S2,M.Cs.,,Universitas Gadjah Mada,Indonesia,2016,img/ijazah/rismi-s2.jpg,
"""198903032015042002""",khadijah0303@gmail.com,S1,S.Kom.,,Universitas Diponegoro,Indonesia,2011,img/ijazah/khadijah-s1.jpg,
"""198903032015042002""",khadijah0303@gmail.com,S2,M.Cs.,,Universitas Gadjah Mada,Indonesia,2014,img/ijazah/khadijah-s2.jpg,
